{
  "products": [
    {
      "name": "troldtekt_buttons",
      "platform": "argon",
      "deviceos": "1.4.4",
      "settings": ["PUB_MQTT", "PUB_NAME", "PUB_RUNTIME_INTERVAL 300000", "RESET_ENABLE", "RESET_TIME 3000"],
      "devices": ["DBD_LAB_EDR2"]
    }
  ]
}
